// Jest Snapshot v1, https://goo.gl/fbAQLP

exports[`renders correctly 1`] = `
<div>
  <WithStyles(CustomSelect)
    label="SELECT TEAM"
    onChangeFunction={[Function]}
  />
  <div>
    <WithStyles(ForwardRef(Paper))>
      NO SCORERS
    </WithStyles(ForwardRef(Paper))>
  </div>
</div>
`;
