{
    "MATCH_TEAM_STATS": [
        "shots",
        "onTarget",
        "possesion",
        "corners"
    ],
    "MATCH_STATS_LABELS": [
        "Shots",
        "On target",
        "Possesion %",
        "Corners"
    ],
    "ADD_SCORER_FIELDS": [
        "time",
        "name",
        "nationality"
    ],
    "ADD_BOOKED_FIELDS": [
        "time",
        "name",
        "nationality",
        "colour"
    ],
    "TEAM_STATS": [
        "goalsScored",
        "goalsLost",
        "shots",
        "onTarget",
        "possesion",
        "corners"
    ],
    "TEAM_STAT_LABELS": [
        "Avg. Goals Scored",
        "Avg. Goals Lost",
        "Avg. Shots",
        "Avg. On Target",
        "Avg Possesion %",
        "Avg. Corners"
    ],
    "ROUNDS": [
        "None",
        "1 ROUND",
        "2 ROUNDS"
    ],
    "REACT_LINKS": [
        "/",
        "/fixtures",
        "/table",
        "/scorers",
        "/options",
        "/users"
    ],
    "LEFT_MENU_BUTTONS_LABELS": [
        "MAIN",
        "FIXTURES",
        "TABLE",
        "SCORERS",
        "OPTIONS",
        "USERS"
    ],
    "EVENTS_TYPE": [
        "scorers",
        "cards"
    ],
    "LOGIN":[
        "login",
        "password"
    ],
    "ADD_TEAM_FIELDS":[
        "name",
        "short"
    ],
    "TABLE_HEADER_LABELS" :[
        "Pos.","Team","MP","P","W","D","L","GS","GL","GD"
    ],
    "TABLE_STATS_NAMES" :[
        "team","matchPlayed","points","matchWon","matchDraw","matchLost",
        "goalsScored","goalsLost","goalsDifference"
    ]
}