// Jest Snapshot v1, https://goo.gl/fbAQLP

exports[`renders correctly 1`] = `
<WithStyles(ForwardRef(Dialog))
  aria-labelledby="form-dialog-title"
  disableBackdropClick={true}
  maxWidth="md"
  onClose={[Function]}
>
  <WithStyles(ForwardRef(DialogTitle))>
    <div>
      EDIT MATCH
    </div>
  </WithStyles(ForwardRef(DialogTitle))>
  <WithStyles(ForwardRef(DialogContent))>
    <div>
      Empty
    </div>
  </WithStyles(ForwardRef(DialogContent))>
  <WithStyles(ForwardRef(DialogActions))>
    <WithStyles(ForwardRef(Button))
      color="inherit"
      onClick={[Function]}
    >
      CANCEL
    </WithStyles(ForwardRef(Button))>
    <WithStyles(ForwardRef(Button))
      color="inherit"
      onClick={[Function]}
    >
      SAVE
    </WithStyles(ForwardRef(Button))>
  </WithStyles(ForwardRef(DialogActions))>
</WithStyles(ForwardRef(Dialog))>
`;
